<?xml version="1.0" encoding="utf-8"?>
<!-- Generator: Adobe Illustrator 16.0.0, SVG Export Plug-In . SVG Version: 6.00 Build 0)  -->
<!DOCTYPE svg PUBLIC "-//W3C//DTD SVG 1.1//EN" "http://www.w3.org/Graphics/SVG/1.1/DTD/svg11.dtd">
<svg version="1.1" id="Layer_1" xmlns="http://www.w3.org/2000/svg" xmlns:xlink="http://www.w3.org/1999/xlink" x="0px" y="0px"
	 width="64px" height="64px" viewBox="0 0 64 64" enable-background="new 0 0 64 64" xml:space="preserve">
<path fill="#D5A231" d="M57.224,31.372l-21.517,17.22c-0.858,0.679-2.055,0.493-2.683-0.433L24.462,35.63
	c-0.628-0.927-0.456-2.223,0.399-2.901l21.517-17.222c0.858-0.679,2.056-0.494,2.684,0.432l8.563,12.53
	C58.251,29.396,58.079,30.69,57.224,31.372z M25.547,33.714c-0.343,0.312-0.4,0.805-0.171,1.175l8.561,12.531
	c0.285,0.37,0.743,0.431,1.084,0.185l21.519-17.222c0.342-0.308,0.4-0.802,0.172-1.172l-8.562-12.53
	c-0.285-0.371-0.743-0.432-1.085-0.186L25.547,33.714z"/>
<polygon fill="#D5A231" points="42.294,39.29 40.229,40.941 33.27,30.77 35.335,29.118 "/>
<polygon fill="#D5A231" points="44.053,37.843 43.134,38.577 36.174,28.405 37.092,27.67 "/>
<polygon fill="#D5A231" points="50.946,32.373 48.881,34.025 41.922,23.853 43.986,22.202 "/>
<polygon fill="#D5A231" points="48.008,34.691 47.092,35.424 40.131,25.251 41.05,24.517 "/>
<polygon fill="#D5A231" points="46.122,36.212 45.203,36.946 38.244,26.772 39.161,26.04 "/>
<polygon fill="#D5A231" points="54.548,29.467 53.631,30.201 46.671,20.03 47.589,19.295 "/>
<polygon fill="#D5A231" points="52.661,30.985 51.743,31.72 44.785,21.549 45.702,20.814 "/>
<ellipse fill="#D5A231" cx="30.626" cy="35.259" rx="1.998" ry="2.161"/>
<g>
	<path fill="#D5A231" d="M31.026,34.951l-0.742,0.554c-1.541-2.284-6.507-1.295-10.845,2.16l-0.514-0.801
		C23.777,33.036,29.085,32.173,31.026,34.951z"/>
</g>
<path fill="#D5A231" d="M19.725,36.679l-6.221-0.433l0,0c-0.114,0-0.229,0-0.343,0.125l-3.253,3.147L6.826,42.48
	c-0.172,0.186-0.229,0.493-0.058,0.681l5.423,6.665c0.171,0.186,0.456,0.247,0.627,0.062l3.083-2.963l3.252-3.147
	c0.115-0.063,0.115-0.186,0.172-0.308l0,0L19.725,36.679z M12.933,48.469c-0.172,0.186-0.457,0.186-0.628-0.062l-4.224-5.187
	c-0.172-0.185-0.172-0.493,0.058-0.679l5.365-5.185c0.114-0.062,0.228-0.122,0.342-0.122l4.509,0.308h0.057
	c0.114,0,0.228,0.063,0.286,0.186c0.057,0.122,0.114,0.186,0.114,0.308v0.063l-0.286,4.875c0,0.125-0.057,0.247-0.17,0.311
	L12.933,48.469z"/>
</svg>
