<?xml version="1.0" encoding="utf-8"?>
<!-- Generator: Adobe Illustrator 16.0.0, SVG Export Plug-In . SVG Version: 6.00 Build 0)  -->
<!DOCTYPE svg PUBLIC "-//W3C//DTD SVG 1.1//EN" "http://www.w3.org/Graphics/SVG/1.1/DTD/svg11.dtd">
<svg version="1.1" id="Layer_1" xmlns="http://www.w3.org/2000/svg" xmlns:xlink="http://www.w3.org/1999/xlink" x="0px" y="0px"
	 width="168.328px" height="81.725px" viewBox="0 0 168.328 81.725" enable-background="new 0 0 168.328 81.725"
	 xml:space="preserve">
<g>
	<path d="M12.21,0h-1.824C4.649,0,0,4.647,0,10.384v60.951c0,5.737,4.651,10.39,10.386,10.39h1.824
		c5.495,0,9.992-4.276,10.356-9.681l0.028,0.003V50.872h-9.652v21.259c0,0.91-0.736,1.646-1.646,1.646
		c-0.908,0-1.644-0.736-1.644-1.646V9.26c0-0.905,0.736-1.644,1.644-1.644c0.91,0,1.646,0.738,1.646,1.644v20.05h9.652V9.638
		l-0.03,0.003C22.179,4.255,17.694,0,12.21,0"/>
	<path d="M38.081,0h-1.825C30.52,0,25.871,4.647,25.871,10.384v60.952c0,5.736,4.649,10.389,10.385,10.389h1.825
		c5.495,0,9.991-4.276,10.358-9.68l0.027,0.002V9.638l-0.031,0.003C48.054,4.255,43.562,0,38.081,0 M38.814,72.131
		c0,0.91-0.737,1.646-1.648,1.646c-0.908,0-1.642-0.736-1.642-1.646V9.26c0-0.904,0.734-1.644,1.642-1.644
		c0.911,0,1.648,0.739,1.648,1.644V72.131z"/>
	<path d="M107.297,72.131c0,0.91-0.736,1.646-1.645,1.646c-0.909,0-1.645-0.736-1.645-1.646V0.899h-9.65v70.437
		c0,5.736,4.648,10.389,10.386,10.389h1.819c5.496,0,9.996-4.276,10.357-9.68l0.027,0.002V0.899h-9.651L107.297,72.131
		L107.297,72.131z"/>
	<polygon points="135.688,43.655 129.455,0.899 120.271,0.899 120.271,80.973 128.809,80.973 128.809,40.326 135.075,80.973 
		135.688,80.973 144.1,80.973 144.1,0.899 135.688,0.899 	"/>
	<polygon points="168.328,9.107 168.328,0.899 157.384,0.899 154.584,0.899 147.443,0.899 147.443,80.973 154.584,80.973 
		157.384,80.973 168.328,80.973 168.328,71.837 157.384,71.837 157.384,41.391 166.116,41.391 166.116,32.252 157.384,32.252 
		157.384,9.107 	"/>
	<polygon points="90.934,38.682 90.934,0.898 74.335,0.898 70.679,31.219 67.888,0.898 52.286,0.898 52.286,38.682 61.073,38.682 
		60.058,10.771 63.365,38.682 78.803,38.682 81.787,10.771 81.45,38.682 	"/>
	<polygon points="90.934,80.973 90.934,43.188 74.335,43.188 70.679,73.51 67.888,43.188 52.286,43.188 52.286,80.973 
		61.073,80.973 60.058,53.063 63.365,80.973 78.803,80.973 81.787,53.063 81.45,80.973 	"/>
</g>
</svg>
