<?xml version="1.0" encoding="utf-8"?>
<!-- Generator: Adobe Illustrator 16.0.0, SVG Export Plug-In . SVG Version: 6.00 Build 0)  -->
<!DOCTYPE svg PUBLIC "-//W3C//DTD SVG 1.1//EN" "http://www.w3.org/Graphics/SVG/1.1/DTD/svg11.dtd">
<svg version="1.1"
	 id="adidas" xmlns:inkscape="http://www.inkscape.org/namespaces/inkscape" xmlns:svg="http://www.w3.org/2000/svg" xmlns:sodipodi="http://sodipodi.sourceforge.net/DTD/sodipodi-0.dtd" xmlns:dc="http://purl.org/dc/elements/1.1/" xmlns:rdf="http://www.w3.org/1999/02/22-rdf-syntax-ns#" xmlns:cc="http://web.resource.org/cc/" inkscape:version="0.44" sodipodi:docbase="C:\Dokumente und Einstellungen\Andreas\Eigene Dateien\Eigene Bilder\sonstiges\Logos\Vektor\Sports" sodipodi:docname="adidas_klassisches_logo.svg" sodipodi:version="0.32"
	 xmlns="http://www.w3.org/2000/svg" xmlns:xlink="http://www.w3.org/1999/xlink" x="0px" y="0px" width="585.793px"
	 height="569.617px" viewBox="0 0 585.793 569.617" enable-background="new 0 0 585.793 569.617" xml:space="preserve">
<path fill="#FFFFFF" d="M448.49,299.262c-52.101,6.248-104.294,14.332-155.467,23.43l0,0l66.337,37.213l0,0
	c31.054-14.424,60.729-26.646,89.13-36.938c11.663-4.226,22.966-8.082,34.181-11.667c32.25-10.197,62.94-18.01,92.342-23.707
	c-30.507,1.84-61.384,4.505-92.342,7.813C471.276,296.598,459.881,297.883,448.49,299.262L448.49,299.262L448.49,299.262
	L448.49,299.262L448.49,299.262z"/>
<path fill="#FFFFFF" d="M482.67,183.396c2.938-0.826,6.245-0.092,8.635,2.757c1.377,1.929,2.022,3.675,1.836,6.248
	c-0.733,5.235-5.511,8.363-10.471,7.166c-0.37-0.092-0.737-0.185-1.108-0.369c-3.49-1.744-5.322-4.595-5.146-8.544
	C476.973,186.795,479.638,184.222,482.67,183.396L482.67,183.396L482.67,183.396L482.67,183.396L482.67,183.396z M482.67,201.682
	c0.734,0.182,1.377,0.273,2.111,0.273c5.785,0,10.474-4.778,10.474-10.476c0-5.786-4.688-10.473-10.474-10.473
	c-0.734,0-1.377,0.091-2.111,0.183c-4.688,1.01-8.366,5.237-8.366,10.29C474.304,196.535,477.983,200.764,482.67,201.682
	L482.67,201.682L482.67,201.682L482.67,201.682L482.67,201.682z"/>
<path fill="#FFFFFF" d="M559.943,231.083c10.293-1.561,15.804-8.73,19.202-18.469l0,0v-10.382h-27.379l0,0
	c0.459,8.82-2.48,15.621-13.047,19.112l0,0h-13.418l-0.095-41.993h-26.92v96.111h26.92v-34.085h14.063l0,0
	c8.542,4.407,12.13,10.566,12.496,19.204l0,0v14.882h27.379v-22.878l0,0C579.791,245.692,569.494,231.909,559.943,231.083
	L559.943,231.083L559.943,231.083L559.943,231.083L559.943,231.083z"/>
<path fill="#FFFFFF" d="M482.392,186.612h0.278h1.836l0,0c0.826,0,1.562,0.275,2.114,0.734c0.551,0.367,0.918,1.011,0.918,1.563
	c0,0.734-0.367,1.285-0.918,1.652c-0.554,0.55-1.288,0.734-2.114,0.734l0,0h-1.836h-0.278V186.612L482.392,186.612L482.392,186.612
	L482.392,186.612z M482.392,192.86h0.278h1.193l3.675,4.868h2.021l-3.952-4.961l0,0c0.917,0,1.835-0.458,2.568-1.1
	c0.833-0.738,1.289-1.656,1.289-2.757c0-1.013-0.456-1.839-1.469-2.575c-0.918-0.641-2.114-1.1-3.491-1.1l0,0h-1.836h-2.298v12.588
	h2.02L482.392,192.86L482.392,192.86L482.392,192.86L482.392,192.86z"/>
<path fill="#FFFFFF" d="M448.49,221.894h0.088l0,0c10.841,0,19.666,7.35,19.666,16.54c0,9.005-8.825,16.447-19.666,16.447l0,0
	h-0.088l0,0c-10.845,0-19.669-7.442-19.669-16.447C428.821,229.244,437.646,221.894,448.49,221.894L448.49,221.894L448.49,221.894
	L448.49,221.894L448.49,221.894z M447.751,275.462c0.275,0,0.555,0,0.738,0c14.057-0.184,26.461-6.064,34.181-15.159
	c5.235-6.062,8.355-13.6,8.355-21.683c0-8.087-3.12-15.624-8.355-21.685c-7.72-9.005-20.124-14.979-34.181-15.161
	c-0.185,0-0.463,0-0.738,0c-23.796,0-43.277,16.538-43.277,36.846C404.474,258.924,423.955,275.462,447.751,275.462L447.751,275.462
	L447.751,275.462L447.751,275.462L447.751,275.462z"/>
<path fill="#FFFFFF" d="M150.417,275.462h51.729v-22.878h-46.218l0,0c-16.076-5.789-16.351-21.776-0.459-28.024l0,0h18.836
	l-14.699,24.258l26.369-0.185l16.171-24.991v-21.41H149.22l0,0C106.956,212.797,105.484,267.562,150.417,275.462L150.417,275.462
	L150.417,275.462L150.417,275.462L150.417,275.462z"/>
<path fill="#FFFFFF" d="M357.8,275.462c56.601-5.51,47.136-67.532,6.799-73.23l0,0h-24.17v22.328H357.8l0,0
	c15.89,4.5,16.075,19.02,0.547,28.024l0,0h-23.521v-73.233H307.44l0.096,96.111H357.8L357.8,275.462L357.8,275.462L357.8,275.462z"
	/>
<path fill="#FFFFFF" d="M258.842,356.779l-37.581-11.941l-11.12-3.587l0,0c-53.66,18.011-95.741,44.199-130.109,75.897l0,0
	l73.046,9.828l0,0c17.646-20.854,40.337-38.591,68.182-53.381C232.931,367.527,245.427,361.835,258.842,356.779L258.842,356.779
	L258.842,356.779L258.842,356.779L258.842,356.779z"/>
<path fill="#FFFFFF" d="M105.484,298.527l0.187-29.589l0,0c0-15.62-11.303-21.776-17.459-24.441
	c28.942-10.198,31.057-60.183-13.785-65.33l0,0l-67.808,0.184v96.111H33.08v-73.415l30.323,0.369l0,0
	c21.96,1.01,23.062,30.139,0.642,30.505l0,0l-23.521,0.277l0.18,20.488h20.859l0,0c10.293,1.839,15.896,7.719,16.542,17.644l0,0
	v27.475L105.484,298.527L105.484,298.527L105.484,298.527L105.484,298.527z"/>
<path fill="#FFFFFF" d="M221.261,395.828c-14.431,10.386-27.107,22.146-37.581,35.286c0.272-0.552,18.924,2.021,37.581,4.593
	c18.833,2.573,37.581,5.148,37.581,4.689c2.57-21.688,46.03-49.527,67.251-61.934l0,0l-43.452-15.986l0,0
	C259.847,371.939,239.176,382.873,221.261,395.828L221.261,395.828L221.261,395.828L221.261,395.828L221.261,395.828z"/>
<path fill="#FFFFFF" d="M246.988,275.462h51.635v-22.878h-46.121l0,0c-16.083-5.789-16.358-21.776-0.458-28.024l0,0h18.928
	l-14.794,24.258l26.277-0.185l16.169-24.991v-21.41h-52.828l0,0c-10.939,2.757-19.115,8.455-24.533,15.529
	c-9.927,13.139-10.202,31.057,0,43.645C226.771,268.205,235.317,273.443,246.988,275.462L246.988,275.462L246.988,275.462
	L246.988,275.462L246.988,275.462z"/>
<polygon fill="#FFFFFF" points="560.496,309.001 560.496,300.917 562.604,300.917 563.801,306.521 565.089,300.917 567.199,300.917 
	567.199,309.001 565.915,309.001 565.915,302.661 564.534,309.001 563.158,309.001 561.781,302.661 561.781,309.001 
	560.496,309.001 560.496,309.001 "/>
<polygon fill="#FFFFFF" points="556.176,309.001 556.176,302.294 554.15,302.294 554.15,300.917 559.572,300.917 559.572,302.294 
	557.553,302.294 557.553,309.001 556.176,309.001 556.176,309.001 "/>
<path fill="#FFFFFF" d="M45.855,318.098c0.547,0.551,173.662-31.516,172.554-31.516c-1.006,0,207.287,125.973,207.287,125.973
	C281.532,346.122,151.335,307.438,45.855,318.098L45.855,318.098L45.855,318.098L45.855,318.098L45.855,318.098z"/>
</svg>
