<?xml version="1.0" encoding="utf-8"?>
<!-- Generator: Adobe Illustrator 16.0.0, SVG Export Plug-In . SVG Version: 6.00 Build 0)  -->
<!DOCTYPE svg PUBLIC "-//W3C//DTD SVG 1.1//EN" "http://www.w3.org/Graphics/SVG/1.1/DTD/svg11.dtd">
<svg version="1.1"
	 id="svg2971" xmlns:dc="http://purl.org/dc/elements/1.1/" xmlns:rdf="http://www.w3.org/1999/02/22-rdf-syntax-ns#" xmlns:cc="http://web.resource.org/cc/"
	 xmlns="http://www.w3.org/2000/svg" xmlns:xlink="http://www.w3.org/1999/xlink" x="0px" y="0px" width="585.79px"
	 height="569.621px" viewBox="0 0 585.79 569.621" enable-background="new 0 0 585.79 569.621" xml:space="preserve">
<g id="layer1" transform="translate(-193.43 -307.55)">
	<g id="g3003">
		<path id="path2425" fill="#FFFFFF" d="M667.14,566.29c-2.543,5.084-7.1,12.185-11.31,16.394H318.492
			c-2.455-3.331-8.329-10.959-10.871-16.394H667.14 M641.974,599.871c-4.208,5.873-10.519,11.396-17.271,15.165H348.38
			c-5.522-3.769-10.958-9.292-16.043-15.165h309.634 M603.752,630.983c-29.896,22.266-62.595,33.574-87.402,35.239
			c0-9.205,0-21.828,2.542-35.239h84.863 M698.606,456.261c2.541,27.264-6.313,60.488-23.058,94.069H551.241
			c4.557-7.977,10.52-15.517,17.181-23.144c36.122-42.351,91.608-68.468,130.183-70.929 M457.53,666.219
			c-23.933-1.665-56.72-12.973-86.876-35.238h85.65c1.662,13.408,1.662,26.036,1.226,35.241 M487.334,668.764
			c-9.644-9.206-18.06-21.829-26.826-37.783h53.301c-8.415,15.951-17.621,28.579-26.473,37.784 M423.951,550.329H299.206
			c-16.832-33.575-25.161-66.801-22.707-94.069c38.224,2.454,94.151,28.578,130.274,70.92c6.219,7.635,12.528,15.169,17.176,23.149
			 M541.159,550.33H433.591c-1.665-9.644-1.665-18.936-1.665-29.807c0-58.823,26.037-119.752,55.404-147.014
			c29.018,27.264,55.492,88.192,55.492,147.014c-0.009,10.867-0.882,20.163-1.671,29.804"/>
		<path id="path2447" fill="#FFFFFF" d="M689.4,690.164c5.087,0,9.208,4.209,9.208,9.731c0,4.996-4.121,9.205-9.208,9.205
			c-5.084,0-9.204-4.209-9.204-9.205c0-5.521,4.122-9.733,9.205-9.733L689.4,690.164z M689.4,691.479
			c-4.644,0-7.976,3.77-7.976,8.417c0,4.209,3.332,7.978,7.976,7.978c4.209,0,7.979-3.769,7.979-7.978
			c0-4.647-3.768-8.415-7.98-8.415L689.4,691.479z M691.507,699.895c0.438,0,1.665,0.351,1.665,2.104v2.894h-1.665v-1.229
			c0-2.103-0.438-2.979-1.667-2.979h-2.103v4.208h-1.665v-10.52h3.329c2.105,0,3.771,1.313,3.771,2.98
			c0.02,1.225-0.862,2.541-1.653,2.541H691.507z M687.739,696.129v2.893h1.664c0.791,0,2.105-0.437,2.105-1.228
			c0-0.876-0.876-1.665-1.667-1.665h-2.096"/>
		<path id="path2449" fill="#FFFFFF" d="M666.695,787.21c17.621,0,32.349-7.1,32.349-24.721c0-10.082-7.1-16.83-18.499-19.813
			c-11.745-2.892-26.823-2.454-26.823-10.08c0.789-4.997,5.435-6.311,12.536-6.311c10.958,0,11.397,5.874,11.835,9.729h18.06
			c-1.314-13.851-12.625-23.581-30.684-23.581c-18.936,0-29.807,10.08-29.807,23.143c0,7.539,3.77,14.29,10.082,17.621
			c4.559,2.104,10.871,3.77,18.497,5.086c7.889,0.787,15.079,1.664,15.517,7.099c0,3.771-3.768,8.417-12.185,8.417
			c-12.186,0-14.728-6.752-14.728-11.309h-18.849c0.354,14.634,12.536,24.719,32.7,24.719"/>
		<path id="path2451" fill="#FFFFFF" d="M587.716,787.21c8.063,0,15.167-2.54,21.039-6.311v4.647h18.06V713.31h-18.06v5.435
			c-5.872-4.209-12.974-6.311-21.039-6.311c-20.514,0-37.783,16.393-37.783,37.433c0,20.598,17.267,37.338,37.783,37.338V787.21z
			 M567.633,749.863c0-11.397,9.645-21.04,20.951-21.04c10.96,0,20.164,9.643,20.164,21.04c0,10.871-9.204,20.602-20.164,20.602
			c-11.302,0.009-20.952-9.724-20.952-20.6"/>
		<path id="path2453" fill="#FFFFFF" d="M526.436,688.503v30.244c-6.313-4.21-13.412-6.311-21.391-6.311
			c-20.601,0-37.432,16.393-37.432,37.432c0,20.603,16.832,37.346,37.432,37.346c7.978,0,15.517-2.543,21.391-6.311v4.646h17.621
			v-97.048h-17.621V688.503z M484.885,749.863c0-11.397,9.642-21.04,20.511-21.04c11.398,0,21.042,9.643,21.042,21.04
			c0,10.871-9.644,20.602-21.042,20.602c-10.874,0.009-20.516-9.724-20.516-20.6"/>
		<path id="path2455" fill="#FFFFFF" d="M442.453,785.549h17.622v-72.235h-17.622V785.549z M442.453,706.56h17.622v-18.06h-17.622
			v18.056"/>
		<path id="path2457" fill="#FFFFFF" d="M394.147,787.21c7.978,0,15.078-2.54,21.39-6.311v4.647h18.06v-97.048h-18.06v30.244
			c-6.312-4.207-13.413-6.311-21.39-6.311c-20.602,0-37.783,16.395-37.783,37.433c0,20.608,17.185,37.349,37.784,37.349
			L394.147,787.21z M373.548,749.863c0-11.397,9.644-21.04,21.391-21.04c10.958,0,20.601,9.643,20.601,21.04
			c0,10.871-9.644,20.602-20.601,20.602c-11.748,0.009-21.389-9.724-21.389-20.6"/>
		<path id="path2459" fill="#FFFFFF" d="M310.954,787.21c8.416,0,15.517-2.54,21.827-6.311v4.647h17.622V713.31h-17.622v5.435
			c-6.311-4.209-13.85-6.311-21.827-6.311c-20.602,0-37.347,16.393-37.347,37.433c0,20.598,16.75,37.338,37.348,37.338
			L310.954,787.21z M290.791,749.863c0-11.397,9.642-21.04,20.601-21.04c11.748,0,21.39,9.643,21.39,21.04
			c0,10.871-9.642,20.602-21.39,20.602c-10.958,0.009-20.599-9.724-20.599-20.6"/>
	</g>
</g>
</svg>
